D:\A_SENSEDIA\workspace_API\Samples-ExtraAPI-SDK\src\main\java\br\com\extra\api\sample\SellerItemsSample.java
D:\A_SENSEDIA\workspace_API\Samples-ExtraAPI-SDK\src\main\java\br\com\extra\api\sample\bf\ProductTest.java
D:\A_SENSEDIA\workspace_API\Samples-ExtraAPI-SDK\src\main\java\br\com\extra\api\sample\ProductsSample.java
D:\A_SENSEDIA\workspace_API\Samples-ExtraAPI-SDK\src\main\java\br\com\extra\api\sample\others\teste.java
D:\A_SENSEDIA\workspace_API\Samples-ExtraAPI-SDK\src\main\java\br\com\extra\api\sample\LoadsSample.java
D:\A_SENSEDIA\workspace_API\Samples-ExtraAPI-SDK\src\main\java\br\com\extra\api\sample\bf\CreateProducts.java
D:\A_SENSEDIA\workspace_API\Samples-ExtraAPI-SDK\src\main\java\br\com\extra\api\sample\CategoriesSample.java
D:\A_SENSEDIA\workspace_API\Samples-ExtraAPI-SDK\src\main\java\br\com\extra\api\sample\utils\JSONPrinterUtil.java
D:\A_SENSEDIA\workspace_API\Samples-ExtraAPI-SDK\src\main\java\br\com\extra\api\sample\utils\Tokens.java
D:\A_SENSEDIA\workspace_API\Samples-ExtraAPI-SDK\src\main\java\br\com\extra\api\sample\bf\ProductUDATest.java
D:\A_SENSEDIA\workspace_API\Samples-ExtraAPI-SDK\src\main\java\br\com\extra\api\sample\OrdersSample.java
D:\A_SENSEDIA\workspace_API\Samples-ExtraAPI-SDK\src\main\java\br\com\extra\api\sample\others\ThreadTest.java
